abschlussprojekt_areggerroman
…
#2. Versuch: Wieviele Frauen und Männer studieren im letzten Jahr in unterschiedlichen Feldern?
daten_processed_projahr <- daten_processed |>
  group_by(period, sex) |>
  summarise(count = sum(value))

`summarise()` has grouped output by 'period'. You can override using the
`.groups` argument.

## Werte für period Variable
## distinct durchsucht die Spalte period und gibt nur die einzigartigen Werte zurück
daten_processed |> 
  distinct(period) 

# A tibble: 25 × 1
   period             
   <chr>              
 1 Studienjahr 2000/01
 2 Studienjahr 2001/02
 3 Studienjahr 2002/03
 4 Studienjahr 2003/04
 5 Studienjahr 2004/05
 6 Studienjahr 2005/06
 7 Studienjahr 2006/07
 8 Studienjahr 2007/08
 9 Studienjahr 2008/09
10 Studienjahr 2009/10
# ℹ 15 more rows
…
# Auch in dieser Grafik musst du die aufsummierung zunächst selbst machen. Ich empfehle dir grundsätzlich mit geom_col() zu arbeiten für Säulendiagramme. geom_bar() macht eine Transformation für dich. Du gibst die x-Achse vor (field) und geom_bar() zähle dann die Häufigkeiten. Das ist nicht das, was du hier möchtest und deshalb ist auch das Verhältnis ausgeglichen, da du lediglich die Anzahl Datenpunkte zählst. Siehe Code mit count(field), welches anzeigt was du visualisierst.
# geom_col erfordert im Gegensatz zu geom_bar, dass die Höhe der Balken explizit angegeben wird (z.B. mit y = wert). geom_bar berechnet automatisch die Höhe der Balken anhand der Häufigkeit (Count).

# inkorrekt
daten_processed |> 
  count(field, sex)

# A tibble: 28 × 3
   field                               sex       n
   <chr>                               <chr> <int>
 1 Angewandte Linguistik               Frau     64
 2 Angewandte Linguistik               Mann     63
 3 Angewandte Psychologie              Frau    138
 4 Angewandte Psychologie              Mann    138
 5 Architektur, Bau- und Planungswesen Frau    418
 6 Architektur, Bau- und Planungswesen Mann    436
 7 Chemie und Life Sciences            Frau    197
 8 Chemie und Life Sciences            Mann    198
 9 Design                              Frau    357
10 Design                              Mann    357
# ℹ 18 more rows
…
